
    {
    "swagger": "2.0",
    "info": {
    "description": "application chasseAuTresor\n\n",
    "version": "0.0.1_inProgress",
    "title": "API ChasseAuTresor",
    "x-logo": {
    "url": "/redoc/logo.png",
    "backgroundColor": "#FFFFFF"
    }
    },
    
      "host": "api.orange.com",
      "basePath":	"/",
      "schemes": [
      "http"
      ],
    "produces": [
    "application/json;charset=utf-8"
    ],
    "tags": [
    
      {
      "name": "Utilisateur",
      "description": "description utilisateur endpoint"
      },
      {
      "name": "Equipe",
      "description": "description equipe endpoint"
      },
      {
      "name": "Chasse",
      "description": "description Chasse"
      },
      {
      "name": "Indice",
      "description": "Indice description"
      }
    ],
    "paths": {
      "/utilisateur": {
    "post": {
    "tags": [
    "Utilisateur"
    ],
        "consumes": [
           "application/json;charset=utf-8"
    ],
        "produces": [
           "application/json;charset=utf-8"
      ],
    "operationId": "utilisateurCreate",
    "summary": "create utilisateur",
    "description": "",
    "deprecated": false,
    
      "parameters": [
      
    {
    "name": "Utilisateur",
    "required": true,
    "in": "body",
    "description": "",
    "schema": {
    "$ref": "#/definitions/Utilisateur"
      }
    }
      ],
    "responses": {
    "201": {
    "description": "Created",
    "schema": {
    "$ref": "#/definitions/Utilisateur"
    }
    
    }
    }
    },
    "get": {
    "tags": [
    "Utilisateur"
    ],
        "produces": [
           "application/json;charset=utf-8"
      ],
    "operationId": "utilisateurFind",
    "summary": "find utilisateur",
    "description": "",
    "deprecated": false,
    
    "responses": {
    "200": {
    "description": "Ok",
    "schema": {
      "type": "array",
      "items": {
    "$ref": "#/definitions/Utilisateur"
      }
    }
    
    }
    }
    }
      },
      "/utilisateur/{UtilisateurId}": {
    "get": {
    "tags": [
    "Utilisateur"
    ],
        "produces": [
           "application/json;charset=utf-8"
      ],
    "operationId": "utilisateurGet",
    "summary": "get utilisateur",
    "description": "",
    "deprecated": false,
    
      "parameters": [
      
    {
    "name": "UtilisateurId",
    "required": true,
    "in": "path",   
    "description": "",
    "type": "string"
    }     
    
      ],
    "responses": {
    "200": {
    "description": "Ok",
    "schema": {
    "$ref": "#/definitions/Utilisateur"
    }
    
    }
    }
    },
    "put": {
    "tags": [
    "Utilisateur"
    ],
        "consumes": [
           "application/json;charset=utf-8"
    ],
        "produces": [
           "application/json;charset=utf-8"
      ],
    "operationId": "utilisateurUpdate",
    "summary": "update utilisateur",
    "description": "",
    "deprecated": false,
    
      "parameters": [
      
    {
    "name": "Utilisateur",
    "required": true,
    "in": "body",
    "description": "",
    "schema": {
    "$ref": "#/definitions/Utilisateur"
      }
    },
    {
    "name": "UtilisateurId",
    "required": true,
    "in": "path",   
    "description": "",
    "type": "string"
    }     
    
      ],
    "responses": {
    "200": {
    "description": "Ok",
    "schema": {
    "$ref": "#/definitions/Utilisateur"
    }
    
    }
    }
    },
    "delete": {
    "tags": [
    "Utilisateur"
    ],
    "operationId": "utilisateurDelete",
    "summary": "delete utilisateur",
    "description": "",
    "deprecated": false,
    
      "parameters": [
      
    {
    "name": "UtilisateurId",
    "required": true,
    "in": "path",   
    "description": "",
    "type": "string"
    }     
    
      ],
    "responses": {
    "204": {
    "description": "No Content"
    
    }
    }
    }
      },
      "/equipe": {
    "post": {
    "tags": [
    "Equipe"
    ],
        "consumes": [
           "application/json;charset=utf-8"
    ],
        "produces": [
           "application/json;charset=utf-8"
      ],
    "operationId": "equipeCreate",
    "summary": "create equipe",
    "description": "",
    "deprecated": false,
    
      "parameters": [
      
    {
    "name": "Equipe",
    "required": true,
    "in": "body",
    "description": "",
    "schema": {
    "$ref": "#/definitions/Equipe"
      }
    }
      ],
    "responses": {
    "201": {
    "description": "Created",
    "schema": {
    "$ref": "#/definitions/Equipe"
    }
    
    }
    }
    },
    "get": {
    "tags": [
    "Equipe"
    ],
        "produces": [
           "application/json;charset=utf-8"
      ],
    "operationId": "equipeFind",
    "summary": "find equipe",
    "description": "",
    "deprecated": false,
    
    "responses": {
    "200": {
    "description": "Ok",
    "schema": {
      "type": "array",
      "items": {
    "$ref": "#/definitions/Equipe"
      }
    }
    
    }
    }
    }
      },
      "/equipe/{EquipeId}": {
    "get": {
    "tags": [
    "Equipe"
    ],
        "produces": [
           "application/json;charset=utf-8"
      ],
    "operationId": "equipeGet",
    "summary": "get equipe",
    "description": "",
    "deprecated": false,
    
      "parameters": [
      
    {
    "name": "EquipeId",
    "required": true,
    "in": "path",   
    "description": "",
    "type": "string"
    }     
    
      ],
    "responses": {
    "200": {
    "description": "Ok",
    "schema": {
    "$ref": "#/definitions/Equipe"
    }
    
    }
    }
    },
    "put": {
    "tags": [
    "Equipe"
    ],
        "consumes": [
           "application/json;charset=utf-8"
    ],
        "produces": [
           "application/json;charset=utf-8"
      ],
    "operationId": "equipeUpdate",
    "summary": "update equipe",
    "description": "",
    "deprecated": false,
    
      "parameters": [
      
    {
    "name": "Equipe",
    "required": true,
    "in": "body",
    "description": "",
    "schema": {
    "$ref": "#/definitions/Equipe"
      }
    },
    {
    "name": "EquipeId",
    "required": true,
    "in": "path",   
    "description": "",
    "type": "string"
    }     
    
      ],
    "responses": {
    "200": {
    "description": "Ok",
    "schema": {
    "$ref": "#/definitions/Equipe"
    }
    
    }
    }
    },
    "delete": {
    "tags": [
    "Equipe"
    ],
    "operationId": "equipeDelete",
    "summary": "delete equipe",
    "description": "",
    "deprecated": false,
    
      "parameters": [
      
    {
    "name": "EquipeId",
    "required": true,
    "in": "path",   
    "description": "",
    "type": "string"
    }     
    
      ],
    "responses": {
    "204": {
    "description": "No Content"
    
    }
    }
    }
      },
      "/chasse": {
    "post": {
    "tags": [
    "Chasse"
    ],
        "consumes": [
           "application/json;charset=utf-8"
    ],
        "produces": [
           "application/json;charset=utf-8"
      ],
    "operationId": "chasseCreate",
    "summary": "create chasse",
    "description": "",
    "deprecated": false,
    
      "parameters": [
      
    {
    "name": "Chasse",
    "required": true,
    "in": "body",
    "description": "",
    "schema": {
    "$ref": "#/definitions/Chasse"
      }
    }
      ],
    "responses": {
    "201": {
    "description": "Created",
    "schema": {
    "$ref": "#/definitions/Chasse"
    }
    
    }
    }
    },
    "get": {
    "tags": [
    "Chasse"
    ],
        "produces": [
           "application/json;charset=utf-8"
      ],
    "operationId": "chasseFind",
    "summary": "find chasse",
    "description": "",
    "deprecated": false,
    
    "responses": {
    "200": {
    "description": "Ok",
    "schema": {
      "type": "array",
      "items": {
    "$ref": "#/definitions/Chasse"
      }
    }
    
    }
    }
    }
      },
      "/chasse/{ChasseId}": {
    "get": {
    "tags": [
    "Chasse"
    ],
        "produces": [
           "application/json;charset=utf-8"
      ],
    "operationId": "chasseGet",
    "summary": "get chasse",
    "description": "",
    "deprecated": false,
    
      "parameters": [
      
    {
    "name": "ChasseId",
    "required": true,
    "in": "path",   
    "description": "",
    "type": "string"
    }     
    
      ],
    "responses": {
    "200": {
    "description": "Ok",
    "schema": {
    "$ref": "#/definitions/Chasse"
    }
    
    }
    }
    },
    "put": {
    "tags": [
    "Chasse"
    ],
        "consumes": [
           "application/json;charset=utf-8"
    ],
        "produces": [
           "application/json;charset=utf-8"
      ],
    "operationId": "chasseUpdate",
    "summary": "update chasse",
    "description": "",
    "deprecated": false,
    
      "parameters": [
      
    {
    "name": "Chasse",
    "required": true,
    "in": "body",
    "description": "",
    "schema": {
    "$ref": "#/definitions/Chasse"
      }
    },
    {
    "name": "ChasseId",
    "required": true,
    "in": "path",   
    "description": "",
    "type": "string"
    }     
    
      ],
    "responses": {
    "200": {
    "description": "Ok",
    "schema": {
    "$ref": "#/definitions/Chasse"
    }
    
    }
    }
    },
    "delete": {
    "tags": [
    "Chasse"
    ],
    "operationId": "chasseDelete",
    "summary": "delete chasse",
    "description": "",
    "deprecated": false,
    
      "parameters": [
      
    {
    "name": "ChasseId",
    "required": true,
    "in": "path",   
    "description": "",
    "type": "string"
    }     
    
      ],
    "responses": {
    "204": {
    "description": "No Content"
    
    }
    }
    }
      },
      "/chasse/{chasseId}/indice": {
    "post": {
    "tags": [
    "Indice"
    ],
        "consumes": [
           "application/json;charset=utf-8"
    ],
        "produces": [
           "application/json;charset=utf-8"
      ],
    "operationId": "indiceCreate",
    "summary": "create indice",
    "description": "",
    "deprecated": false,
    
      "parameters": [
      
    {
    "name": "chasseId",
    "in": "path",
    "required": true,
    "type": "string",
    "description": ""
    }
  ,
    {
    "name": "Indice",
    "required": true,
    "in": "body",
    "description": "",
    "schema": {
    "$ref": "#/definitions/Indice"
      }
    }
      ],
    "responses": {
    "201": {
    "description": "Created",
    "schema": {
    "$ref": "#/definitions/Indice"
    }
    
    }
    }
    },
    "get": {
    "tags": [
    "Indice"
    ],
        "produces": [
           "application/json;charset=utf-8"
      ],
    "operationId": "indiceFind",
    "summary": "find indice",
    "description": "",
    "deprecated": false,
    
      "parameters": [
      
    {
    "name": "chasseId",
    "in": "path",
    "required": true,
    "type": "string",
    "description": ""
    }
  
      ],
    "responses": {
    "200": {
    "description": "Ok",
    "schema": {
      "type": "array",
      "items": {
    "$ref": "#/definitions/Indice"
      }
    }
    
    }
    }
    }
      },
      "/chasse/{chasseId}/indice/{IndiceId}": {
    "get": {
    "tags": [
    "Indice"
    ],
        "produces": [
           "application/json;charset=utf-8"
      ],
    "operationId": "indiceGet",
    "summary": "get indice",
    "description": "",
    "deprecated": false,
    
      "parameters": [
      
    {
    "name": "chasseId",
    "in": "path",
    "required": true,
    "type": "string",
    "description": ""
    }
  ,
    {
    "name": "IndiceId",
    "required": true,
    "in": "path",   
    "description": "",
    "type": "string"
    }     
    
      ],
    "responses": {
    "200": {
    "description": "Ok",
    "schema": {
    "$ref": "#/definitions/Indice"
    }
    
    }
    }
    },
    "put": {
    "tags": [
    "Indice"
    ],
        "consumes": [
           "application/json;charset=utf-8"
    ],
        "produces": [
           "application/json;charset=utf-8"
      ],
    "operationId": "indiceUpdate",
    "summary": "update indice",
    "description": "",
    "deprecated": false,
    
      "parameters": [
      
    {
    "name": "chasseId",
    "in": "path",
    "required": true,
    "type": "string",
    "description": ""
    }
  ,
    {
    "name": "Indice",
    "required": true,
    "in": "body",
    "description": "",
    "schema": {
    "$ref": "#/definitions/Indice"
      }
    },
    {
    "name": "IndiceId",
    "required": true,
    "in": "path",   
    "description": "",
    "type": "string"
    }     
    
      ],
    "responses": {
    "200": {
    "description": "Ok",
    "schema": {
    "$ref": "#/definitions/Indice"
    }
    
    }
    }
    },
    "delete": {
    "tags": [
    "Indice"
    ],
    "operationId": "indiceDelete",
    "summary": "delete indice",
    "description": "",
    "deprecated": false,
    
      "parameters": [
      
    {
    "name": "chasseId",
    "in": "path",
    "required": true,
    "type": "string",
    "description": ""
    }
  ,
    {
    "name": "IndiceId",
    "required": true,
    "in": "path",   
    "description": "",
    "type": "string"
    }     
    
      ],
    "responses": {
    "204": {
    "description": "No Content"
    
    }
    }
    }
      }
    },
    "definitions": {
    
    "Role": {
    "description": "description role",
    
      "type": "string",
      "enum": [
        "role1",
        "role2",
        "role3"]
    
    },    

    "ErrorDetail": {
    "description": "",

    
    "required": [
    
      "code",
      "message"
    ],
    "type": "object",
    "properties": {
    "code": {
    "description": "",
    "type": "integer",
    "format": "int32"
    },
    "message": {
    "description": "",
    "type": "string"
    },
    "description": {
    "description": "",
    "type": "string"
    },
    "infoURL": {
    "description": "",
    "type": "string"
    }
    }
    
    },    

    "Error": {
    "description": "",

    
    "required": [
    
      "code",
      "message"
    ],
    "type": "object",
    "properties": {
    "code": {
    "description": "",
    "type": "integer",
    "format": "int32"
    },
    "message": {
    "description": "",
    "type": "string"
    },
    "description": {
    "description": "",
    "type": "string"
    },
    "infoURL": {
    "description": "",
    "type": "string"
    },
    "details": {
    
    "type": "array",
    "items": {
    "$ref": "#/definitions/ErrorDetail"
    }
    }
    }
    
    },    

    "Indice": {
    "description": "description indice",

    
    "required": [
    
      "nom"
    ],
    "type": "object",
    "properties": {
    "idIndice": {
    "description": "",
    "type": "string"
    },
    "nom": {
    "description": "",
    "type": "string"
    },
    "description": {
    "description": "",
    "type": "string"
    },
    "coordonne": {
    
    "$ref": "#/definitions/Coordonnee"
    },
    "piste": {
    "description": "",
    "type": "string"
    },
    "mobile": {
    "description": "",
    "type": "boolean"
    },
    "theme": {
    "description": "",
    "type": "string"
    },
    "code": {
    "description": "",
    "type": "integer",
    "format": "int32"
    }
    }
    
    },    

    "Utilisateur": {
    "description": "description utilisateur",

    
    "required": [
    
      "idUtilisateur",
      "nom",
      "prenom",
      "email",
      "password",
      "role",
      "idEquipe"
    ],
    "type": "object",
    "properties": {
    "idUtilisateur": {
    "description": "",
    "type": "string"
    },
    "nom": {
    "description": "",
    "type": "string"
    },
    "prenom": {
    "description": "",
    "type": "string"
    },
    "email": {
    "description": "",
    "type": "string"
    },
    "password": {
    "description": "",
    "type": "string"
    },
    "role": {
    
    "$ref": "#/definitions/Role"
    },
    "idEquipe": {
    "description": "",
    "type": "string"
    }
    }
    
    },    

    "Coordonnee": {
    "description": "description coordonnée",

    
    "required": [
    
      "latitude",
      "longitude"
    ],
    "type": "object",
    "properties": {
    "latitude": {
    "description": "",
    "type": "number",
    "format": "float"
    },
    "longitude": {
    "description": "",
    "type": "number",
    "format": "float"
    }
    }
    
    },    

    "Equipe": {
    "description": "description equipe",

    
    "required": [
    
      "idEquipe",
      "nom",
      "chef",
      "indices"
    ],
    "type": "object",
    "properties": {
    "idEquipe": {
    "description": "",
    "type": "string"
    },
    "nom": {
    "description": "",
    "type": "string"
    },
    "chef": {
    "description": "",
    "type": "string"
    },
    "tabUtilisateurs": {
    
    "type": "array",
    "items": {
    "$ref": "#/definitions/Utilisateur"
    }
    },
    "indices": {
    
    "type": "array",
    "items": {
    "$ref": "#/definitions/Indice"
    }
    }
    }
    
    },    

    "Chasse": {
    "description": "Description chasse",

    
    "required": [
    
      "nom"
    ],
    "type": "object",
    "properties": {
    "idChasse": {
    "description": "description idChasse",
    "type": "string",
    
      "default": "default value",
    "minLength": 0,
    "maxLength": 100
    },
    "nom": {
    "description": "",
    "type": "string"
    },
    "date": {
    "description": "",
    "type": "string",
    "format": "date-time"
    },
    "heureStart": {
    "description": "",
    "type": "string",
    "format": "date-time"
    },
    "heureEnd": {
    "description": "",
    "type": "string",
    "format": "date-time"
    },
    "lieu": {
    
    "$ref": "#/definitions/Coordonnee"
    },
    "description": {
    "description": "",
    "type": "string"
    }
    }
    
    }
    }
    }
  